…
And we can work with `com.apple.metadata:kMDItemWhereFroms` binary plist data in bulk:

```{r eval=FALSE}
filter(xdf, name == "com.apple.metadata:kMDItemWhereFroms") %>%
  filter(map_lgl(contents, is_bplist)) %>% 
  mutate(converted = map(contents, read_bplist)) %>% 
  select(size, converted) %>% 
  mutate(converted = map(converted, ~flatten_chr(.x$plist$array$string))) %>% 
  unnest() %>% 
  mutate(converted = urltools::domain(converted)) # you don't rly need to see the full URLs for this example
## # A tibble: 44 x 2
##     size converted                                              
##    <dbl> <chr>                                                  
##  1   189 dl.packetstormsecurity.net                             
##  2   129 files.slack.com                                        
##  3   120 files.slack.com                                        
##  4   117 files.slack.com                                        
##  5   592 irma.nps.gov                                           
##  6   157 files.slack.com                                        
##  7   624 github-production-release-asset-2e65be.s3.amazonaws.com
##  8   197 images.unsplash.com                                    
##  9   197 images.unsplash.com                                    
## 10   185 files.slack.com                                        
## # … with 34 more rows
```
…
