…
And we can work with `com.apple.metadata:kMDItemWhereFroms` binary plist
data in bulk:

``` r
filter(xdf, name == "com.apple.metadata:kMDItemWhereFroms") %>%
  filter(map_lgl(contents, is_bplist)) %>% 
  mutate(converted = map(contents, read_bplist)) %>% 
  select(size, converted) %>% 
  mutate(converted = map(converted, ~flatten_chr(.x$plist$array$string))) %>% 
  unnest() %>% 
  mutate(converted = urltools::domain(converted)) # you don't rly need to see the full URLs for this example
## # A tibble: 23 x 2
##     size converted                                                       
##    <dbl> <chr>                                                           
##  1  143. eprint.ncl.ac.uk                                                
##  2  117. files.slack.com                                                 
##  3  592. irma.nps.gov                                                    
##  4  110. apps.start.umd.edu                                              
##  5 1510. aws-athena-query-results-181646978271-us-east-1.s3.amazonaws.com
##  6  145. www.eac.gov                                                     
##  7  177. www.msad60.org                                                  
##  8  185. www.telerik.com                                                 
##  9  152. www.gess-inc.com                                                
## 10  134. files.slack.com                                                 
## # ... with 13 more rows
```
…
